…
|  id | name               | date       | manner_of_death  | armed      | age | gender | race | city          | state | signs_of_mental_illness | threat_level | flee        | body_camera | longitude | latitude | is_geocoding_exact |
|----:|:-------------------|:-----------|:-----------------|:-----------|----:|:-------|:-----|:--------------|:------|:------------------------|:-------------|:------------|:------------|----------:|---------:|:-------------------|
|   3 | Tim Elliot         | 2015-01-02 | shot             | gun        |  53 | M      | A    | Shelton       | WA    | TRUE                    | attack       | Not fleeing | FALSE       |  -123.122 |   47.247 | TRUE               |
|   4 | Lewis Lee Lembke   | 2015-01-02 | shot             | gun        |  47 | M      | W    | Aloha         | OR    | FALSE                   | attack       | Not fleeing | FALSE       |  -122.892 |   45.487 | TRUE               |
|   5 | John Paul Quintero | 2015-01-03 | shot and Tasered | unarmed    |  23 | M      | H    | Wichita       | KS    | FALSE                   | other        | Not fleeing | FALSE       |   -97.281 |   37.695 | TRUE               |
|   8 | Matthew Hoffman    | 2015-01-04 | shot             | toy weapon |  32 | M      | W    | San Francisco | CA    | TRUE                    | attack       | Not fleeing | FALSE       |  -122.422 |   37.763 | TRUE               |
|   9 | Michael Rodriguez  | 2015-01-04 | shot             | nail gun   |  39 | M      | H    | Evans         | CO    | FALSE                   | attack       | Not fleeing | FALSE       |  -104.692 |   40.384 | TRUE               |
|  11 | Kenneth Joe Brown  | 2015-01-04 | shot             | gun        |  18 | M      | W    | Guthrie       | OK    | FALSE                   | attack       | Not fleeing | FALSE       |   -97.423 |   35.877 | TRUE               |

``` r
shootings <- na.omit(shootings)
shootings 
```

    ## # A tibble: 5,035 × 17
    ##       id name    date       manne…¹ armed   age gender race  city  state signs…²
    ##    <dbl> <chr>   <date>     <chr>   <chr> <dbl> <chr>  <chr> <chr> <chr> <lgl>  
    ##  1     3 Tim El… 2015-01-02 shot    gun      53 M      A     Shel… WA    TRUE   
    ##  2     4 Lewis … 2015-01-02 shot    gun      47 M      W     Aloha OR    FALSE  
    ##  3     5 John P… 2015-01-03 shot a… unar…    23 M      H     Wich… KS    FALSE  
    ##  4     8 Matthe… 2015-01-04 shot    toy …    32 M      W     San … CA    TRUE   
    ##  5     9 Michae… 2015-01-04 shot    nail…    39 M      H     Evans CO    FALSE  
    ##  6    11 Kennet… 2015-01-04 shot    gun      18 M      W     Guth… OK    FALSE  
    ##  7    13 Kennet… 2015-01-05 shot    gun      22 M      H     Chan… AZ    FALSE  
    ##  8    15 Brock … 2015-01-06 shot    gun      35 M      W     Assa… KS    FALSE  
    ##  9    16 Autumn… 2015-01-06 shot    unar…    34 F      W     Burl… IA    FALSE  
    ## 10    17 Leslie… 2015-01-06 shot    toy …    47 M      B     Knox… PA    FALSE  
    ## # … with 5,025 more rows, 6 more variables: threat_level <chr>, flee <chr>,
    ## #   body_camera <lgl>, longitude <dbl>, latitude <dbl>,
    ## #   is_geocoding_exact <lgl>, and abbreviated variable names ¹​manner_of_death,
    ## #   ²​signs_of_mental_illness
…
